HFE data in the Tidyverse
…
# convert plot numbers to 'factor')
hfetree$plotnr <- factor(hfetree$plotnr)
length(levels(hfetree$plotnr))

## [1] 16

Now that we have our dataframe ready we can specify groups and calculate group means.

# calculate average diameter for each plot and date
hfeplot <- hfetree %>% 
  group_by(Date, treat, plotnr) %>% 
  summarise(diameter=mean(diameter))
hfeplot

## # A tibble: 272 x 4
## # Groups:   Date, treat [68]
##    Date       treat plotnr diameter
##    <date>     <fct> <fct>     <dbl>
##  1 2008-01-01 C     7         0.902
##  2 2008-01-01 C     9         1.07 
##  3 2008-01-01 C     17        1.25 
##  4 2008-01-01 C     25        0.961
##  5 2008-01-01 F     3         1.58 
##  6 2008-01-01 F     8         0.738
##  7 2008-01-01 F     14        0.46 
##  8 2008-01-01 F     22        1.02 
##  9 2008-01-01 I     2         1.12 
## 10 2008-01-01 I     10        0.852
## #  with 262 more rows
…
# clean up the data, we don't need all variables and NAs are not informative
dfr <- dfr %>% 
  drop_na %>% 
  # naming some variables strategically means that we can use 'tidyselect' helpers
  select(Date, treat, plotnr, growth.rate, ends_with('.30')) %>% 
  # then rename variables for ease of use
  rename(Tair=Tair.30, Rain=Rain.30)
dfr

## # A tibble: 112 x 6
## # Groups:   plotnr [16]
##    Date       treat plotnr growth.rate  Tair  Rain
##    <date>     <fct> <fct>        <dbl> <dbl> <dbl>
##  1 2008-03-01 C     7           0.0143  20.3  244.
##  2 2008-03-01 C     9           0.0194  20.3  244.
##  3 2008-03-01 C     17          0.0195  20.3  244.
##  4 2008-03-01 C     25          0.0165  20.3  244.
##  5 2008-03-01 F     3           0.0229  20.3  244.
##  6 2008-03-01 F     8           0.0199  20.3  244.
##  7 2008-03-01 F     14          0.0136  20.3  244.
##  8 2008-03-01 F     22          0.0238  20.3  244.
##  9 2008-03-01 I     2           0.0206  20.3  244.
## 10 2008-03-01 I     10          0.0130  20.3  244.
## #  with 102 more rows
…
